UUID: b6612b5f-40d5-40c4-a9ef-f562f0d0253a


Runs: 512

Run Time: 875.79576420784 Seconds

Model Summary:
_________________________________________________________________
Layer (type)                 Output Shape              Param #   
=================================================================
flatten (Flatten)            (None, 784)               0         
_________________________________________________________________
dense (Dense)                (None, 16)                12560     
_________________________________________________________________
dense_1 (Dense)              (None, 16)                272       
_________________________________________________________________
dense_2 (Dense)              (None, 16)                272       
_________________________________________________________________
dense_3 (Dense)              (None, 10)                170       
=================================================================
Total params: 13,274
Trainable params: 13,274
Non-trainable params: 0
_________________________________________________________________


Test Loss: 50.42389768127141
Test Accuracy: 95.07